{
  "extends": "./tools/tslint/tslint-config.json",
  "rulesDirectory": [
    "codelyzer"
  ],
  "rules": {
    "no-output-on-prefix": true,
    "no-inputs-metadata-property": true,
    "deprecation": {
      "severity": "warning"
    },
    "no-outputs-metadata-property": true,
    "no-host-metadata-property": false,
    "no-input-rename": true,
    "no-output-rename": true,
    "use-lifecycle-interface": true,
    "use-pipe-transform-interface": true,
    "component-class-suffix": true,
    "directive-class-suffix": true,
    "directive-selector": [
      true,
      "attribute",
      ["story", "ar", "spec"],
      "camelCase"
    ],
    "component-selector": [
      true,
      "element",
      ["story", "ar", "spec"],
      "kebab-case"
    ]
  }
}
