{
  "$schema": "../../node_modules/ng-packagr/ng-package.schema.json",
  "dest": "./dist",
  "lib": {
    "entryFile": "src/public-api.ts"
  },
  "allowedNonPeerDependencies": [
    "@argon/bs-context",
    "@argon/tools"
  ]
}
